<svg xmlns="http://www.w3.org/2000/svg" width="100" height="100" viewBox="0 0 100 100">
  <path id="Soustraction_1" data-name="Soustraction 1" d="M50,100a49.38,49.38,0,0,1-19.414-3.945A50.487,50.487,0,0,1,3.945,69.414a49.739,49.739,0,0,1,0-38.828A50.488,50.488,0,0,1,30.586,3.945a49.74,49.74,0,0,1,38.828,0,50.488,50.488,0,0,1,26.64,26.64,49.739,49.739,0,0,1,0,38.828,50.487,50.487,0,0,1-26.64,26.641A49.378,49.378,0,0,1,50,100Zm.378-43.365A29.266,29.266,0,0,0,33,62.322a30.1,30.1,0,0,0-6.391,6.336,29.68,29.68,0,0,0-4.235,7.976h56a29.676,29.676,0,0,0-4.234-7.976,30.1,30.1,0,0,0-6.391-6.336A29.268,29.268,0,0,0,50.379,56.635ZM67.5,30A7.7,7.7,0,0,0,60,37.5a7.5,7.5,0,1,0,15,0A7.7,7.7,0,0,0,67.5,30Zm-35,0A7.7,7.7,0,0,0,25,37.5,7.7,7.7,0,0,0,32.5,45,7.7,7.7,0,0,0,40,37.5,7.7,7.7,0,0,0,32.5,30Z" fill="#fff"/>
</svg>
